{
    "latest": "1.14.3",
    "versions":
    [
        {
            "version": "1.14.3"
        },
        {
            "version": "1.14.2"
        },
        {
            "version": "1.14.1"
        },
        {
            "version": "1.14.0"
        },
        {
            "version": "1.13.5"
        },
        {
            "version": "1.13.4"
        },
        {
            "version": "1.13.3"
        },
        {
            "version": "1.13.2"
        },
        {
            "version": "1.13.1"
        },
        {
            "version": "1.12.1"
        }
    ]
}